B0729047 midterm/wave/simulation/qsim/wave.msim.vcd
$comment
	File created using the following command:
		vcd file wave.msim.vcd -direction
$end
$date
	Fri Nov 15 15:05:32 2019
$end
$version
	ModelSim Version 10.5b
$end
$timescale
	1ps
$end

$scope module wave_vlg_vec_tst $end
$var reg 1 ! clk $end
$var wire 1 " QA0 $end
$var wire 1 # QA1 $end
$var wire 1 $ QA2 $end
$var wire 1 % QA3 $end
$var wire 1 & QA4 $end
$var wire 1 ' QA5 $end
$var wire 1 ( QA6 $end
$var wire 1 ) QB0 $end
$var wire 1 * QB1 $end
$var wire 1 + QB2 $end
$var wire 1 , QB3 $end
$var wire 1 - QB4 $end
$var wire 1 . QB5 $end
$var wire 1 / QB6 $end
$var wire 1 0 QC0 $end
$var wire 1 1 QC1 $end
$var wire 1 2 QC2 $end
$var wire 1 3 QC3 $end
$var wire 1 4 QC4 $end
$var wire 1 5 QC5 $end
$var wire 1 6 QC6 $end
$var wire 1 7 QD0 $end
$var wire 1 8 QD1 $end
$var wire 1 9 QD2 $end
$var wire 1 : QD3 $end
$var wire 1 ; QD4 $end
$var wire 1 < QD5 $end
$var wire 1 = QD6 $end

$scope module i1 $end
$var wire 1 > gnd $end
$var wire 1 ? vcc $end
$var wire 1 @ unknown $end
$var tri1 1 A devclrn $end
$var tri1 1 B devpor $end
$var tri1 1 C devoe $end
$var wire 1 D ~QUARTUS_CREATED_GND~I_combout $end
$var wire 1 E clk~input_o $end
$var wire 1 F clk~inputCLKENA0_outclk $end
$var wire 1 G inst3|A0~0_combout $end
$var wire 1 H inst3|A0~q $end
$var wire 1 I inst3|A3~0_combout $end
$var wire 1 J inst3|A3~q $end
$var wire 1 K inst3|inst7|inst1~combout $end
$var wire 1 L inst3|A1~q $end
$var wire 1 M inst3|inst6|inst1~combout $end
$var wire 1 N inst3|A2~q $end
$var wire 1 O inst4|81~combout $end
$var wire 1 P inst4|87~combout $end
$var wire 1 Q inst4|86~0_combout $end
$var wire 1 R inst4|85~combout $end
$var wire 1 S inst4|84~0_combout $end
$var wire 1 T inst4|83~combout $end
$var wire 1 U inst4|82~0_combout $end
$var wire 1 V inst3|inst2~combout $end
$var wire 1 W inst8|A0~0_combout $end
$var wire 1 X inst8|A0~q $end
$var wire 1 Y inst8|inst2|inst1~0_combout $end
$var wire 1 Z inst8|A1~q $end
$var wire 1 [ inst8|A2~0_combout $end
$var wire 1 \ inst8|A2~q $end
$var wire 1 ] inst5|87~combout $end
$var wire 1 ^ inst5|86~0_combout $end
$var wire 1 _ inst5|85~combout $end
$var wire 1 ` inst5|84~0_combout $end
$var wire 1 a inst5|6~0_combout $end
$var wire 1 b inst5|82~0_combout $end
$var wire 1 c inst5|81~combout $end
$var wire 1 d inst8|inst8~combout $end
$var wire 1 e inst6|A0~0_combout $end
$var wire 1 f inst6|A0~q $end
$var wire 1 g inst6|inst6|inst1~combout $end
$var wire 1 h inst6|A2~q $end
$var wire 1 i inst6|A3~0_combout $end
$var wire 1 j inst6|A3~q $end
$var wire 1 k inst6|inst7|inst1~combout $end
$var wire 1 l inst6|A1~q $end
$var wire 1 m inst7|87~combout $end
$var wire 1 n inst7|86~0_combout $end
$var wire 1 o inst7|85~combout $end
$var wire 1 p inst7|84~0_combout $end
$var wire 1 q inst7|83~combout $end
$var wire 1 r inst7|82~0_combout $end
$var wire 1 s inst7|81~combout $end
$var wire 1 t inst6|inst2~combout $end
$var wire 1 u inst2|A0~0_combout $end
$var wire 1 v inst2|A0~q $end
$var wire 1 w inst2|A2~0_combout $end
$var wire 1 x inst2|A2~feeder_combout $end
$var wire 1 y inst2|A2~q $end
$var wire 1 z inst2|inst2|inst1~0_combout $end
$var wire 1 { inst2|A1~q $end
$var wire 1 | inst2|A2~DUPLICATE_q $end
$var wire 1 } inst9|87~combout $end
$var wire 1 ~ inst9|86~0_combout $end
$var wire 1 !! inst9|85~combout $end
$var wire 1 "! inst9|84~0_combout $end
$var wire 1 #! inst9|6~0_combout $end
$var wire 1 $! inst9|82~0_combout $end
$var wire 1 %! inst9|81~combout $end
$upscope $end
$upscope $end
$enddefinitions $end
#0
$dumpvars
0!
0"
0#
0$
0%
0&
0'
1(
0)
0*
0+
0,
0-
0.
1/
00
01
02
03
04
05
16
07
08
09
0:
0;
0<
1=
0>
1?
x@
1A
1B
1C
0D
0E
0F
1G
0H
1I
0J
0K
0L
0M
0N
0O
1P
0Q
0R
0S
0T
0U
0V
1W
0X
0Y
0Z
1[
0\
1]
0^
0_
0`
0a
0b
0c
0d
1e
0f
0g
0h
1i
0j
0k
0l
1m
0n
0o
0p
0q
0r
0s
0t
1u
0v
1w
1x
0y
0z
0{
0|
1}
0~
0!!
0"!
0#!
0$!
0%!
$end
#1000
1!
1E
1F
1J
1H
0G
1V
1S
1R
0P
0(
1&
1%
1\
1X
0W
1d
1b
1_
0]
0/
1-
1*
1j
1f
0e
1t
1p
1o
0m
06
14
13
1|
1y
1v
0u
1$!
1!!
0}
0=
1;
18
#2000
0!
0E
0F
#3000
1!
1E
1F
0H
1G
0V
0S
0R
1M
1K
0I
0&
0%
#4000
0!
0E
0F
#5000
1!
1E
1F
1N
1L
0J
1H
0G
1S
1R
1Q
1P
1(
1'
1&
1%
#6000
0!
0E
0F
#7000
1!
1E
1F
0H
1G
1U
0S
0R
0Q
0P
1O
0K
1"
0(
0'
0&
0%
1#
#8000
0!
0E
0F
#9000
1!
1E
1F
0L
1H
0G
1R
0O
0"
1&
#10000
0!
0E
0F
#11000
1!
1E
1F
0H
1G
0U
1S
1O
0M
1K
1"
1%
0#
#12000
0!
0E
0F
#13000
1!
1E
1F
0N
1L
1H
0G
0S
1Q
0O
0"
1'
0%
#14000
0!
0E
0F
#15000
1!
1E
1F
0H
1G
1T
0R
0K
0&
1$
#16000
0!
0E
0F
#17000
1!
1E
1F
0L
1H
0G
0T
1S
1R
1P
1O
1"
1(
1&
1%
0$
#18000
0!
0E
0F
#19000
1!
1E
1F
0H
1G
0S
0R
0Q
0O
1I
0"
0'
0&
0%
#20000
0!
0E
0F
#21000
1!
1E
1F
1J
1H
0G
1V
1S
1R
0P
0(
1&
1%
0X
0[
1Y
1W
0d
1c
0b
1`
1,
0*
1)
#22000
0!
0E
0F
#23000
1!
1E
1F
0H
1G
0V
0S
0R
1M
1K
0I
0&
0%
#24000
0!
0E
0F
#25000
1!
1E
1F
1N
1L
0J
1H
0G
1S
1R
1Q
1P
1(
1'
1&
1%
#26000
0!
0E
0F
#27000
1!
1E
1F
0H
1G
1U
0S
0R
0Q
0P
1O
0K
1"
0(
0'
0&
0%
1#
#28000
0!
0E
0F
#29000
1!
1E
1F
0L
1H
0G
1R
0O
0"
1&
#30000
0!
0E
0F
#31000
1!
1E
1F
0H
1G
0U
1S
1O
0M
1K
1"
1%
0#
#32000
0!
0E
0F
#33000
1!
1E
1F
0N
1L
1H
0G
0S
1Q
0O
0"
1'
0%
#34000
0!
0E
0F
#35000
1!
1E
1F
0H
1G
1T
0R
0K
0&
1$
#36000
0!
0E
0F
#37000
1!
1E
1F
0L
1H
0G
0T
1S
1R
1P
1O
1"
1(
1&
1%
0$
#38000
0!
0E
0F
#39000
1!
1E
1F
0H
1G
0S
0R
0Q
0O
1I
0"
0'
0&
0%
#40000
0!
0E
0F
#41000
1!
1E
1F
1J
1H
0G
1V
1S
1R
0P
0(
1&
1%
0\
1Z
1X
0W
0c
0`
1^
1.
0,
0)
#42000
0!
0E
0F
#43000
1!
1E
1F
0H
1G
0V
0S
0R
1M
1K
0I
0&
0%
#44000
0!
0E
0F
#45000
1!
1E
1F
1N
1L
0J
1H
0G
1S
1R
1Q
1P
1(
1'
1&
1%
#46000
0!
0E
0F
#47000
1!
1E
1F
0H
1G
1U
0S
0R
0Q
0P
1O
0K
1"
0(
0'
0&
0%
1#
#48000
0!
0E
0F
#49000
1!
1E
1F
0L
1H
0G
1R
0O
0"
1&
#50000
0!
0E
0F
#51000
1!
1E
1F
0H
1G
0U
1S
1O
0M
1K
1"
1%
0#
#52000
0!
0E
0F
#53000
1!
1E
1F
0N
1L
1H
0G
0S
1Q
0O
0"
1'
0%
#54000
0!
0E
0F
#55000
1!
1E
1F
0H
1G
1T
0R
0K
0&
1$
#56000
0!
0E
0F
#57000
1!
1E
1F
0L
1H
0G
0T
1S
1R
1P
1O
1"
1(
1&
1%
0$
#58000
0!
0E
0F
#59000
1!
1E
1F
0H
1G
0S
0R
0Q
0O
1I
0"
0'
0&
0%
#60000
0!
0E
0F
#61000
1!
1E
1F
1J
1H
0G
1V
1S
1R
0P
0(
1&
1%
0X
0Y
1W
1a
0_
0-
1+
#62000
0!
0E
0F
#63000
1!
1E
1F
0H
1G
0V
0S
0R
1M
1K
0I
0&
0%
#64000
0!
0E
0F
#65000
1!
1E
1F
1N
1L
0J
1H
0G
1S
1R
1Q
1P
1(
1'
1&
1%
#66000
0!
0E
0F
#67000
1!
1E
1F
0H
1G
1U
0S
0R
0Q
0P
1O
0K
1"
0(
0'
0&
0%
1#
#68000
0!
0E
0F
#69000
1!
1E
1F
0L
1H
0G
1R
0O
0"
1&
#70000
0!
0E
0F
#71000
1!
1E
1F
0H
1G
0U
1S
1O
0M
1K
1"
1%
0#
#72000
0!
0E
0F
#73000
1!
1E
1F
0N
1L
1H
0G
0S
1Q
0O
0"
1'
0%
#74000
0!
0E
0F
#75000
1!
1E
1F
0H
1G
1T
0R
0K
0&
1$
#76000
0!
0E
0F
#77000
1!
1E
1F
0L
1H
0G
0T
1S
1R
1P
1O
1"
1(
1&
1%
0$
#78000
0!
0E
0F
#79000
1!
1E
1F
0H
1G
0S
0R
0Q
0O
1I
0"
0'
0&
0%
#80000
0!
0E
0F
#81000
1!
1E
1F
1J
1H
0G
1V
1S
1R
0P
0(
1&
1%
0Z
1X
0W
1c
0a
1`
1_
1]
1/
1-
1,
0+
1)
#82000
0!
0E
0F
#83000
1!
1E
1F
0H
1G
0V
0S
0R
1M
1K
0I
0&
0%
#84000
0!
0E
0F
#85000
1!
1E
1F
1N
1L
0J
1H
0G
1S
1R
1Q
1P
1(
1'
1&
1%
#86000
0!
0E
0F
#87000
1!
1E
1F
0H
1G
1U
0S
0R
0Q
0P
1O
0K
1"
0(
0'
0&
0%
1#
#88000
0!
0E
0F
#89000
1!
1E
1F
0L
1H
0G
1R
0O
0"
1&
#90000
0!
0E
0F
#91000
1!
1E
1F
0H
1G
0U
1S
1O
0M
1K
1"
1%
0#
#92000
0!
0E
0F
#93000
1!
1E
1F
0N
1L
1H
0G
0S
1Q
0O
0"
1'
0%
#94000
0!
0E
0F
#95000
1!
1E
1F
0H
1G
1T
0R
0K
0&
1$
#96000
0!
0E
0F
#97000
1!
1E
1F
0L
1H
0G
0T
1S
1R
1P
1O
1"
1(
1&
1%
0$
#98000
0!
0E
0F
#99000
1!
1E
1F
0H
1G
0S
0R
0Q
0O
1I
0"
0'
0&
0%
#100000
0!
0E
0F
#101000
1!
1E
1F
1J
1H
0G
1V
1S
1R
0P
0(
1&
1%
0X
1[
1W
0c
0`
0_
0^
0.
0-
0,
0)
#102000
0!
0E
0F
#103000
1!
1E
1F
0H
1G
0V
0S
0R
1M
1K
0I
0&
0%
#104000
0!
0E
0F
#105000
1!
1E
1F
1N
1L
0J
1H
0G
1S
1R
1Q
1P
1(
1'
1&
1%
#106000
0!
0E
0F
#107000
1!
1E
1F
0H
1G
1U
0S
0R
0Q
0P
1O
0K
1"
0(
0'
0&
0%
1#
#108000
0!
0E
0F
#109000
1!
1E
1F
0L
1H
0G
1R
0O
0"
1&
#110000
0!
0E
0F
#111000
1!
1E
1F
0H
1G
0U
1S
1O
0M
1K
1"
1%
0#
#112000
0!
0E
0F
#113000
1!
1E
1F
0N
1L
1H
0G
0S
1Q
0O
0"
1'
0%
#114000
0!
0E
0F
#115000
1!
1E
1F
0H
1G
1T
0R
0K
0&
1$
#116000
0!
0E
0F
#117000
1!
1E
1F
0L
1H
0G
0T
1S
1R
1P
1O
1"
1(
1&
1%
0$
#118000
0!
0E
0F
#119000
1!
1E
1F
0H
1G
0S
0R
0Q
0O
1I
0"
0'
0&
0%
#120000
0!
0E
0F
#121000
1!
1E
1F
1J
1H
0G
1V
1S
1R
0P
0(
1&
1%
1\
1X
0W
1d
1b
1_
0]
0/
1-
1*
0f
1k
0i
1g
1e
0t
0p
0o
04
03
#122000
0!
0E
0F
#123000
1!
1E
1F
0H
1G
0V
0S
0R
1M
1K
0I
0&
0%
#124000
0!
0E
0F
#125000
1!
1E
1F
1N
1L
0J
1H
0G
1S
1R
1Q
1P
1(
1'
1&
1%
#126000
0!
0E
0F
#127000
1!
1E
1F
0H
1G
1U
0S
0R
0Q
0P
1O
0K
1"
0(
0'
0&
0%
1#
#128000
0!
0E
0F
#129000
1!
1E
1F
0L
1H
0G
1R
0O
0"
1&
#130000
0!
0E
0F
#131000
1!
1E
1F
0H
1G
0U
1S
1O
0M
1K
1"
1%
0#
#132000
0!
0E
0F
#133000
1!
1E
1F
0N
1L
1H
0G
0S
1Q
0O
0"
1'
0%
#134000
0!
0E
0F
#135000
1!
1E
1F
0H
1G
1T
0R
0K
0&
1$
#136000
0!
0E
0F
#137000
1!
1E
1F
0L
1H
0G
0T
1S
1R
1P
1O
1"
1(
1&
1%
0$
#138000
0!
0E
0F
#139000
1!
1E
1F
0H
1G
0S
0R
0Q
0O
1I
0"
0'
0&
0%
#140000
0!
0E
0F
#141000
1!
1E
1F
1J
1H
0G
1V
1S
1R
0P
0(
1&
1%
0X
0[
1Y
1W
0d
1c
0b
1`
1,
0*
1)
#142000
0!
0E
0F
#143000
1!
1E
1F
0H
1G
0V
0S
0R
1M
1K
0I
0&
0%
#144000
0!
0E
0F
#145000
1!
1E
1F
1N
1L
0J
1H
0G
1S
1R
1Q
1P
1(
1'
1&
1%
#146000
0!
0E
0F
#147000
1!
1E
1F
0H
1G
1U
0S
0R
0Q
0P
1O
0K
1"
0(
0'
0&
0%
1#
#148000
0!
0E
0F
#149000
1!
1E
1F
0L
1H
0G
1R
0O
0"
1&
#150000
0!
0E
0F
#151000
1!
1E
1F
0H
1G
0U
1S
1O
0M
1K
1"
1%
0#
#152000
0!
0E
0F
#153000
1!
1E
1F
0N
1L
1H
0G
0S
1Q
0O
0"
1'
0%
#154000
0!
0E
0F
#155000
1!
1E
1F
0H
1G
1T
0R
0K
0&
1$
#156000
0!
0E
0F
#157000
1!
1E
1F
0L
1H
0G
0T
1S
1R
1P
1O
1"
1(
1&
1%
0$
#158000
0!
0E
0F
#159000
1!
1E
1F
0H
1G
0S
0R
0Q
0O
1I
0"
0'
0&
0%
#160000
0!
0E
0F
#161000
1!
1E
1F
1J
1H
0G
1V
1S
1R
0P
0(
1&
1%
0\
1Z
1X
0W
0c
0`
1^
1.
0,
0)
#162000
0!
0E
0F
#163000
1!
1E
1F
0H
1G
0V
0S
0R
1M
1K
0I
0&
0%
#164000
0!
0E
0F
#165000
1!
1E
1F
1N
1L
0J
1H
0G
1S
1R
1Q
1P
1(
1'
1&
1%
#166000
0!
0E
0F
#167000
1!
1E
1F
0H
1G
1U
0S
0R
0Q
0P
1O
0K
1"
0(
0'
0&
0%
1#
#168000
0!
0E
0F
#169000
1!
1E
1F
0L
1H
0G
1R
0O
0"
1&
#170000
0!
0E
0F
#171000
1!
1E
1F
0H
1G
0U
1S
1O
0M
1K
1"
1%
0#
#172000
0!
0E
0F
#173000
1!
1E
1F
0N
1L
1H
0G
0S
1Q
0O
0"
1'
0%
#174000
0!
0E
0F
#175000
1!
1E
1F
0H
1G
1T
0R
0K
0&
1$
#176000
0!
0E
0F
#177000
1!
1E
1F
0L
1H
0G
0T
1S
1R
1P
1O
1"
1(
1&
1%
0$
#178000
0!
0E
0F
#179000
1!
1E
1F
0H
1G
0S
0R
0Q
0O
1I
0"
0'
0&
0%
#180000
0!
0E
0F
#181000
1!
1E
1F
1J
1H
0G
1V
1S
1R
0P
0(
1&
1%
0X
0Y
1W
1a
0_
0-
1+
#182000
0!
0E
0F
#183000
1!
1E
1F
0H
1G
0V
0S
0R
1M
1K
0I
0&
0%
#184000
0!
0E
0F
#185000
1!
1E
1F
1N
1L
0J
1H
0G
1S
1R
1Q
1P
1(
1'
1&
1%
#186000
0!
0E
0F
#187000
1!
1E
1F
0H
1G
1U
0S
0R
0Q
0P
1O
0K
1"
0(
0'
0&
0%
1#
#188000
0!
0E
0F
#189000
1!
1E
1F
0L
1H
0G
1R
0O
0"
1&
#190000
0!
0E
0F
#191000
1!
1E
1F
0H
1G
0U
1S
1O
0M
1K
1"
1%
0#
#192000
0!
0E
0F
#193000
1!
1E
1F
0N
1L
1H
0G
0S
1Q
0O
0"
1'
0%
#194000
0!
0E
0F
#195000
1!
1E
1F
0H
1G
1T
0R
0K
0&
1$
#196000
0!
0E
0F
#197000
1!
1E
1F
0L
1H
0G
0T
1S
1R
1P
1O
1"
1(
1&
1%
0$
#198000
0!
0E
0F
#199000
1!
1E
1F
0H
1G
0S
0R
0Q
0O
1I
0"
0'
0&
0%
#200000
0!
0E
0F
#201000
1!
1E
1F
1J
1H
0G
1V
1S
1R
0P
0(
1&
1%
0Z
1X
0W
1c
0a
1`
1_
1]
1/
1-
1,
0+
1)
#202000
0!
0E
0F
#203000
1!
1E
1F
0H
1G
0V
0S
0R
1M
1K
0I
0&
0%
#204000
0!
0E
0F
#205000
1!
1E
1F
1N
1L
0J
1H
0G
1S
1R
1Q
1P
1(
1'
1&
1%
#206000
0!
0E
0F
#207000
1!
1E
1F
0H
1G
1U
0S
0R
0Q
0P
1O
0K
1"
0(
0'
0&
0%
1#
#208000
0!
0E
0F
#209000
1!
1E
1F
0L
1H
0G
1R
0O
0"
1&
#210000
0!
0E
0F
#211000
1!
1E
1F
0H
1G
0U
1S
1O
0M
1K
1"
1%
0#
#212000
0!
0E
0F
#213000
1!
1E
1F
0N
1L
1H
0G
0S
1Q
0O
0"
1'
0%
#214000
0!
0E
0F
#215000
1!
1E
1F
0H
1G
1T
0R
0K
0&
1$
#216000
0!
0E
0F
#217000
1!
1E
1F
0L
1H
0G
0T
1S
1R
1P
1O
1"
1(
1&
1%
0$
#218000
0!
0E
0F
#219000
1!
1E
1F
0H
1G
0S
0R
0Q
0O
1I
0"
0'
0&
0%
#220000
0!
0E
0F
#221000
1!
1E
1F
1J
1H
0G
1V
1S
1R
0P
0(
1&
1%
0X
1[
1W
0c
0`
0_
0^
0.
0-
0,
0)
#222000
0!
0E
0F
#223000
1!
1E
1F
0H
1G
0V
0S
0R
1M
1K
0I
0&
0%
#224000
0!
0E
0F
#225000
1!
1E
1F
1N
1L
0J
1H
0G
1S
1R
1Q
1P
1(
1'
1&
1%
#226000
0!
0E
0F
#227000
1!
1E
1F
0H
1G
1U
0S
0R
0Q
0P
1O
0K
1"
0(
0'
0&
0%
1#
#228000
0!
0E
0F
#229000
1!
1E
1F
0L
1H
0G
1R
0O
0"
1&
#230000
0!
0E
0F
#231000
1!
1E
1F
0H
1G
0U
1S
1O
0M
1K
1"
1%
0#
#232000
0!
0E
0F
#233000
1!
1E
1F
0N
1L
1H
0G
0S
1Q
0O
0"
1'
0%
#234000
0!
0E
0F
#235000
1!
1E
1F
0H
1G
1T
0R
0K
0&
1$
#236000
0!
0E
0F
#237000
1!
1E
1F
0L
1H
0G
0T
1S
1R
1P
1O
1"
1(
1&
1%
0$
#238000
0!
0E
0F
#239000
1!
1E
1F
0H
1G
0S
0R
0Q
0O
1I
0"
0'
0&
0%
#240000
0!
0E
0F
#241000
1!
1E
1F
1J
1H
0G
1V
1S
1R
0P
0(
1&
1%
1\
1X
0W
1d
1b
1_
0]
0/
1-
1*
1l
0j
1h
1f
0e
1p
1o
1n
1m
16
15
14
13
#242000
0!
0E
0F
#243000
1!
1E
1F
0H
1G
0V
0S
0R
1M
1K
0I
0&
0%
#244000
0!
0E
0F
#245000
1!
1E
1F
1N
1L
0J
1H
0G
1S
1R
1Q
1P
1(
1'
1&
1%
#246000
0!
0E
0F
#247000
1!
1E
1F
0H
1G
1U
0S
0R
0Q
0P
1O
0K
1"
0(
0'
0&
0%
1#
#248000
0!
0E
0F
#249000
1!
1E
1F
0L
1H
0G
1R
0O
0"
1&
#250000
0!
0E
0F
#251000
1!
1E
1F
0H
1G
0U
1S
1O
0M
1K
1"
1%
0#
#252000
0!
0E
0F
#253000
1!
1E
1F
0N
1L
1H
0G
0S
1Q
0O
0"
1'
0%
#254000
0!
0E
0F
#255000
1!
1E
1F
0H
1G
1T
0R
0K
0&
1$
#256000
0!
0E
0F
#257000
1!
1E
1F
0L
1H
0G
0T
1S
1R
1P
1O
1"
1(
1&
1%
0$
#258000
0!
0E
0F
#259000
1!
1E
1F
0H
1G
0S
0R
0Q
0O
1I
0"
0'
0&
0%
#260000
0!
0E
0F
#261000
1!
1E
1F
1J
1H
0G
1V
1S
1R
0P
0(
1&
1%
0X
0[
1Y
1W
0d
1c
0b
1`
1,
0*
1)
#262000
0!
0E
0F
#263000
1!
1E
1F
0H
1G
0V
0S
0R
1M
1K
0I
0&
0%
#264000
0!
0E
0F
#265000
1!
1E
1F
1N
1L
0J
1H
0G
1S
1R
1Q
1P
1(
1'
1&
1%
#266000
0!
0E
0F
#267000
1!
1E
1F
0H
1G
1U
0S
0R
0Q
0P
1O
0K
1"
0(
0'
0&
0%
1#
#268000
0!
0E
0F
#269000
1!
1E
1F
0L
1H
0G
1R
0O
0"
1&
#270000
0!
0E
0F
#271000
1!
1E
1F
0H
1G
0U
1S
1O
0M
1K
1"
1%
0#
#272000
0!
0E
0F
#273000
1!
1E
1F
0N
1L
1H
0G
0S
1Q
0O
0"
1'
0%
#274000
0!
0E
0F
#275000
1!
1E
1F
0H
1G
1T
0R
0K
0&
1$
#276000
0!
0E
0F
#277000
1!
1E
1F
0L
1H
0G
0T
1S
1R
1P
1O
1"
1(
1&
1%
0$
#278000
0!
0E
0F
#279000
1!
1E
1F
0H
1G
0S
0R
0Q
0O
1I
0"
0'
0&
0%
#280000
0!
0E
0F
#281000
1!
1E
1F
1J
1H
0G
1V
1S
1R
0P
0(
1&
1%
0\
1Z
1X
0W
0c
0`
1^
1.
0,
0)
#282000
0!
0E
0F
#283000
1!
1E
1F
0H
1G
0V
0S
0R
1M
1K
0I
0&
0%
#284000
0!
0E
0F
#285000
1!
1E
1F
1N
1L
0J
1H
0G
1S
1R
1Q
1P
1(
1'
1&
1%
#286000
0!
0E
0F
#287000
1!
1E
1F
0H
1G
1U
0S
0R
0Q
0P
1O
0K
1"
0(
0'
0&
0%
1#
#288000
0!
0E
0F
#289000
1!
1E
1F
0L
1H
0G
1R
0O
0"
1&
#290000
0!
0E
0F
#291000
1!
1E
1F
0H
1G
0U
1S
1O
0M
1K
1"
1%
0#
#292000
0!
0E
0F
#293000
1!
1E
1F
0N
1L
1H
0G
0S
1Q
0O
0"
1'
0%
#294000
0!
0E
0F
#295000
1!
1E
1F
0H
1G
1T
0R
0K
0&
1$
#296000
0!
0E
0F
#297000
1!
1E
1F
0L
1H
0G
0T
1S
1R
1P
1O
1"
1(
1&
1%
0$
#298000
0!
0E
0F
#299000
1!
1E
1F
0H
1G
0S
0R
0Q
0O
1I
0"
0'
0&
0%
#300000
0!
0E
0F
#301000
1!
1E
1F
1J
1H
0G
1V
1S
1R
0P
0(
1&
1%
0X
0Y
1W
1a
0_
0-
1+
#302000
0!
0E
0F
#303000
1!
1E
1F
0H
1G
0V
0S
0R
1M
1K
0I
0&
0%
#304000
0!
0E
0F
#305000
1!
1E
1F
1N
1L
0J
1H
0G
1S
1R
1Q
1P
1(
1'
1&
1%
#306000
0!
0E
0F
#307000
1!
1E
1F
0H
1G
1U
0S
0R
0Q
0P
1O
0K
1"
0(
0'
0&
0%
1#
#308000
0!
0E
0F
#309000
1!
1E
1F
0L
1H
0G
1R
0O
0"
1&
#310000
0!
0E
0F
#311000
1!
1E
1F
0H
1G
0U
1S
1O
0M
1K
1"
1%
0#
#312000
0!
0E
0F
#313000
1!
1E
1F
0N
1L
1H
0G
0S
1Q
0O
0"
1'
0%
#314000
0!
0E
0F
#315000
1!
1E
1F
0H
1G
1T
0R
0K
0&
1$
#316000
0!
0E
0F
#317000
1!
1E
1F
0L
1H
0G
0T
1S
1R
1P
1O
1"
1(
1&
1%
0$
#318000
0!
0E
0F
#319000
1!
1E
1F
0H
1G
0S
0R
0Q
0O
1I
0"
0'
0&
0%
#320000
0!
0E
0F
#321000
1!
1E
1F
1J
1H
0G
1V
1S
1R
0P
0(
1&
1%
0Z
1X
0W
1c
0a
1`
1_
1]
1/
1-
1,
0+
1)
#322000
0!
0E
0F
#323000
1!
1E
1F
0H
1G
0V
0S
0R
1M
1K
0I
0&
0%
#324000
0!
0E
0F
#325000
1!
1E
1F
1N
1L
0J
1H
0G
1S
1R
1Q
1P
1(
1'
1&
1%
#326000
0!
0E
0F
#327000
1!
1E
1F
0H
1G
1U
0S
0R
0Q
0P
1O
0K
1"
0(
0'
0&
0%
1#
#328000
0!
0E
0F
#329000
1!
1E
1F
0L
1H
0G
1R
0O
0"
1&
#330000
0!
0E
0F
#331000
1!
1E
1F
0H
1G
0U
1S
1O
0M
1K
1"
1%
0#
#332000
0!
0E
0F
#333000
1!
1E
1F
0N
1L
1H
0G
0S
1Q
0O
0"
1'
0%
#334000
0!
0E
0F
#335000
1!
1E
1F
0H
1G
1T
0R
0K
0&
1$
#336000
0!
0E
0F
#337000
1!
1E
1F
0L
1H
0G
0T
1S
1R
1P
1O
1"
1(
1&
1%
0$
#338000
0!
0E
0F
#339000
1!
1E
1F
0H
1G
0S
0R
0Q
0O
1I
0"
0'
0&
0%
#340000
0!
0E
0F
#341000
1!
1E
1F
1J
1H
0G
1V
1S
1R
0P
0(
1&
1%
0X
1[
1W
0c
0`
0_
0^
0.
0-
0,
0)
#342000
0!
0E
0F
#343000
1!
1E
1F
0H
1G
0V
0S
0R
1M
1K
0I
0&
0%
#344000
0!
0E
0F
#345000
1!
1E
1F
1N
1L
0J
1H
0G
1S
1R
1Q
1P
1(
1'
1&
1%
#346000
0!
0E
0F
#347000
1!
1E
1F
0H
1G
1U
0S
0R
0Q
0P
1O
0K
1"
0(
0'
0&
0%
1#
#348000
0!
0E
0F
#349000
1!
1E
1F
0L
1H
0G
1R
0O
0"
1&
#350000
0!
0E
0F
#351000
1!
1E
1F
0H
1G
0U
1S
1O
0M
1K
1"
1%
0#
#352000
0!
0E
0F
#353000
1!
1E
1F
0N
1L
1H
0G
0S
1Q
0O
0"
1'
0%
#354000
0!
0E
0F
#355000
1!
1E
1F
0H
1G
1T
0R
0K
0&
1$
#356000
0!
0E
0F
#357000
1!
1E
1F
0L
1H
0G
0T
1S
1R
1P
1O
1"
1(
1&
1%
0$
#358000
0!
0E
0F
#359000
1!
1E
1F
0H
1G
0S
0R
0Q
0O
1I
0"
0'
0&
0%
#360000
0!
0E
0F
#361000
1!
1E
1F
1J
1H
0G
1V
1S
1R
0P
0(
1&
1%
1\
1X
0W
1d
1b
1_
0]
0/
1-
1*
0f
0k
1e
1s
1r
0p
0o
0n
0m
06
05
04
03
11
10
#362000
0!
0E
0F
#363000
1!
1E
1F
0H
1G
0V
0S
0R
1M
1K
0I
0&
0%
#364000
0!
0E
0F
#365000
1!
1E
1F
1N
1L
0J
1H
0G
1S
1R
1Q
1P
1(
1'
1&
1%
#366000
0!
0E
0F
#367000
1!
1E
1F
0H
1G
1U
0S
0R
0Q
0P
1O
0K
1"
0(
0'
0&
0%
1#
#368000
0!
0E
0F
#369000
1!
1E
1F
0L
1H
0G
1R
0O
0"
1&
#370000
0!
0E
0F
#371000
1!
1E
1F
0H
1G
0U
1S
1O
0M
1K
1"
1%
0#
#372000
0!
0E
0F
#373000
1!
1E
1F
0N
1L
1H
0G
0S
1Q
0O
0"
1'
0%
#374000
0!
0E
0F
#375000
1!
1E
1F
0H
1G
1T
0R
0K
0&
1$
#376000
0!
0E
0F
#377000
1!
1E
1F
0L
1H
0G
0T
1S
1R
1P
1O
1"
1(
1&
1%
0$
#378000
0!
0E
0F
#379000
1!
1E
1F
0H
1G
0S
0R
0Q
0O
1I
0"
0'
0&
0%
#380000
0!
0E
0F
#381000
1!
1E
1F
1J
1H
0G
1V
1S
1R
0P
0(
1&
1%
0X
0[
1Y
1W
0d
1c
0b
1`
1,
0*
1)
#382000
0!
0E
0F
#383000
1!
1E
1F
0H
1G
0V
0S
0R
1M
1K
0I
0&
0%
#384000
0!
0E
0F
#385000
1!
1E
1F
1N
1L
0J
1H
0G
1S
1R
1Q
1P
1(
1'
1&
1%
#386000
0!
0E
0F
#387000
1!
1E
1F
0H
1G
1U
0S
0R
0Q
0P
1O
0K
1"
0(
0'
0&
0%
1#
#388000
0!
0E
0F
#389000
1!
1E
1F
0L
1H
0G
1R
0O
0"
1&
#390000
0!
0E
0F
#391000
1!
1E
1F
0H
1G
0U
1S
1O
0M
1K
1"
1%
0#
#392000
0!
0E
0F
#393000
1!
1E
1F
0N
1L
1H
0G
0S
1Q
0O
0"
1'
0%
#394000
0!
0E
0F
#395000
1!
1E
1F
0H
1G
1T
0R
0K
0&
1$
#396000
0!
0E
0F
#397000
1!
1E
1F
0L
1H
0G
0T
1S
1R
1P
1O
1"
1(
1&
1%
0$
#398000
0!
0E
0F
#399000
1!
1E
1F
0H
1G
0S
0R
0Q
0O
1I
0"
0'
0&
0%
#400000
0!
0E
0F
#401000
1!
1E
1F
1J
1H
0G
1V
1S
1R
0P
0(
1&
1%
0\
1Z
1X
0W
0c
0`
1^
1.
0,
0)
#402000
0!
0E
0F
#403000
1!
1E
1F
0H
1G
0V
0S
0R
1M
1K
0I
0&
0%
#404000
0!
0E
0F
