B0729047 lab05/simulation/qsim/lab05.msim.vcd
$comment
	File created using the following command:
		vcd file lab05.msim.vcd -direction
$end
$date
	Fri Nov 08 16:05:04 2019
$end
$version
	ModelSim Version 10.5b
$end
$timescale
	1ps
$end

$scope module lab05_vlg_vec_tst $end
$var reg 1 ! clk $end
$var reg 1 " stop $end
$var wire 1 # QA0 $end
$var wire 1 $ QA1 $end
$var wire 1 % QA2 $end
$var wire 1 & QA3 $end
$var wire 1 ' QA4 $end
$var wire 1 ( QA5 $end
$var wire 1 ) QA6 $end
$var wire 1 * QB0 $end
$var wire 1 + QB1 $end
$var wire 1 , QB2 $end
$var wire 1 - QB3 $end
$var wire 1 . QB4 $end
$var wire 1 / QB5 $end
$var wire 1 0 QB6 $end
$var wire 1 1 QC0 $end
$var wire 1 2 QC1 $end
$var wire 1 3 QC2 $end
$var wire 1 4 QC3 $end
$var wire 1 5 QC4 $end
$var wire 1 6 QC5 $end
$var wire 1 7 QC6 $end
$var wire 1 8 QD0 $end
$var wire 1 9 QD1 $end
$var wire 1 : QD2 $end
$var wire 1 ; QD3 $end
$var wire 1 < QD4 $end
$var wire 1 = QD5 $end
$var wire 1 > QD6 $end

$scope module i1 $end
$var wire 1 ? gnd $end
$var wire 1 @ vcc $end
$var wire 1 A unknown $end
$var tri1 1 B devclrn $end
$var tri1 1 C devpor $end
$var tri1 1 D devoe $end
$var wire 1 E ~QUARTUS_CREATED_GND~I_combout $end
$var wire 1 F clk~input_o $end
$var wire 1 G clk~inputCLKENA0_outclk $end
$var wire 1 H inst|Add0~109_sumout $end
$var wire 1 I inst|Equal0~4_combout $end
$var wire 1 J stop~input_o $end
$var wire 1 K inst|Equal0~2_combout $end
$var wire 1 L inst|Equal0~3_combout $end
$var wire 1 M inst|Add0~2 $end
$var wire 1 N inst|Add0~49_sumout $end
$var wire 1 O inst|Add0~50 $end
$var wire 1 P inst|Add0~5_sumout $end
$var wire 1 Q inst|Add0~6 $end
$var wire 1 R inst|Add0~45_sumout $end
$var wire 1 S inst|Add0~46 $end
$var wire 1 T inst|Add0~41_sumout $end
$var wire 1 U inst|Add0~42 $end
$var wire 1 V inst|Add0~37_sumout $end
$var wire 1 W inst|Add0~38 $end
$var wire 1 X inst|Add0~33_sumout $end
$var wire 1 Y inst|Add0~34 $end
$var wire 1 Z inst|Add0~29_sumout $end
$var wire 1 [ inst|Add0~30 $end
$var wire 1 \ inst|Add0~25_sumout $end
$var wire 1 ] inst|Add0~26 $end
$var wire 1 ^ inst|Add0~21_sumout $end
$var wire 1 _ inst|Add0~22 $end
$var wire 1 ` inst|Add0~17_sumout $end
$var wire 1 a inst|Add0~18 $end
$var wire 1 b inst|Add0~13_sumout $end
$var wire 1 c inst|Add0~14 $end
$var wire 1 d inst|Add0~9_sumout $end
$var wire 1 e inst|Equal0~0_combout $end
$var wire 1 f inst|Equal0~1_combout $end
$var wire 1 g inst|counter[17]~0_combout $end
$var wire 1 h inst|Add0~110 $end
$var wire 1 i inst|Add0~105_sumout $end
$var wire 1 j inst|Add0~106 $end
$var wire 1 k inst|Add0~101_sumout $end
$var wire 1 l inst|Add0~102 $end
$var wire 1 m inst|Add0~73_sumout $end
$var wire 1 n inst|Add0~74 $end
$var wire 1 o inst|Add0~69_sumout $end
$var wire 1 p inst|Add0~70 $end
$var wire 1 q inst|Add0~65_sumout $end
$var wire 1 r inst|Add0~66 $end
$var wire 1 s inst|Add0~61_sumout $end
$var wire 1 t inst|Add0~62 $end
$var wire 1 u inst|Add0~57_sumout $end
$var wire 1 v inst|Add0~58 $end
$var wire 1 w inst|Add0~53_sumout $end
$var wire 1 x inst|Add0~54 $end
$var wire 1 y inst|Add0~85_sumout $end
$var wire 1 z inst|Add0~86 $end
$var wire 1 { inst|Add0~97_sumout $end
$var wire 1 | inst|Add0~98 $end
$var wire 1 } inst|Add0~93_sumout $end
$var wire 1 ~ inst|Add0~94 $end
$var wire 1 !! inst|Add0~89_sumout $end
$var wire 1 "! inst|Add0~90 $end
$var wire 1 #! inst|Add0~81_sumout $end
$var wire 1 $! inst|Add0~82 $end
$var wire 1 %! inst|Add0~77_sumout $end
$var wire 1 &! inst|Add0~78 $end
$var wire 1 '! inst|Add0~1_sumout $end
$var wire 1 (! inst|LessThan0~0_combout $end
$var wire 1 )! inst|LessThan0~1_combout $end
$var wire 1 *! inst|LessThan0~2_combout $end
$var wire 1 +! inst|clk_out~0_combout $end
$var wire 1 ,! inst|clk_out~q $end
$var wire 1 -! inst1|A0~0_combout $end
$var wire 1 .! inst1|A0~q $end
$var wire 1 /! inst1|A1~0_combout $end
$var wire 1 0! inst1|A1~q $end
$var wire 1 1! inst1|A2~0_combout $end
$var wire 1 2! inst1|A2~q $end
$var wire 1 3! inst1|A3~0_combout $end
$var wire 1 4! inst1|A3~q $end
$var wire 1 5! inst1|A4~0_combout $end
$var wire 1 6! inst1|A4~q $end
$var wire 1 7! inst1|A5~0_combout $end
$var wire 1 8! inst1|A5~q $end
$var wire 1 9! inst1|inst20~0_combout $end
$var wire 1 :! inst1|A6~0_combout $end
$var wire 1 ;! inst1|A6~q $end
$var wire 1 <! inst1|A7~0_combout $end
$var wire 1 =! inst1|A7~q $end
$var wire 1 >! inst1|A8~0_combout $end
$var wire 1 ?! inst1|A8~q $end
$var wire 1 @! inst1|A9~0_combout $end
$var wire 1 A! inst1|A9~q $end
$var wire 1 B! inst1|inst33~0_combout $end
$var wire 1 C! inst1|inst33~combout $end
$var wire 1 D! inst4|A0~0_combout $end
$var wire 1 E! inst4|A2~0_combout $end
$var wire 1 F! inst4|A2~q $end
$var wire 1 G! inst4|A3~0_combout $end
$var wire 1 H! inst4|A3~q $end
$var wire 1 I! inst4|inst10~combout $end
$var wire 1 J! inst4|A0~q $end
$var wire 1 K! inst6|84~1_combout $end
$var wire 1 L! inst4|A1~feeder_combout $end
$var wire 1 M! inst4|A1~q $end
$var wire 1 N! inst6|81~combout $end
$var wire 1 O! inst6|82~0_combout $end
$var wire 1 P! inst6|83~combout $end
$var wire 1 Q! inst6|84~0_combout $end
$var wire 1 R! inst6|85~combout $end
$var wire 1 S! inst6|86~0_combout $end
$var wire 1 T! inst6|87~combout $end
$var wire 1 U! inst2|A0~0_combout $end
$var wire 1 V! inst7|82~1_combout $end
$var wire 1 W! inst2|A1~q $end
$var wire 1 X! inst2|A2~0_combout $end
$var wire 1 Y! inst2|A2~q $end
$var wire 1 Z! inst2|inst8~combout $end
$var wire 1 [! inst2|A0~q $end
$var wire 1 \! inst7|81~combout $end
$var wire 1 ]! inst7|82~0_combout $end
$var wire 1 ^! inst7|5~0_combout $end
$var wire 1 _! inst7|84~0_combout $end
$var wire 1 `! inst7|85~combout $end
$var wire 1 a! inst7|86~0_combout $end
$var wire 1 b! inst7|87~combout $end
$var wire 1 c! inst5|A0~0_combout $end
$var wire 1 d! inst8|84~1_combout $end
$var wire 1 e! inst5|A1~q $end
$var wire 1 f! inst5|A3~0_combout $end
$var wire 1 g! inst5|A3~q $end
$var wire 1 h! inst5|inst10~combout $end
$var wire 1 i! inst5|A0~q $end
$var wire 1 j! inst5|A2~0_combout $end
$var wire 1 k! inst5|A2~q $end
$var wire 1 l! inst8|81~combout $end
$var wire 1 m! inst8|82~0_combout $end
$var wire 1 n! inst8|83~combout $end
$var wire 1 o! inst8|84~0_combout $end
$var wire 1 p! inst8|85~combout $end
$var wire 1 q! inst8|86~0_combout $end
$var wire 1 r! inst8|87~combout $end
$var wire 1 s! inst3|A0~0_combout $end
$var wire 1 t! inst9|82~1_combout $end
$var wire 1 u! inst3|A1~q $end
$var wire 1 v! inst3|A2~q $end
$var wire 1 w! inst3|A2~0_combout $end
$var wire 1 x! inst3|A2~DUPLICATE_q $end
$var wire 1 y! inst9|5~1_combout $end
$var wire 1 z! inst3|A0~q $end
$var wire 1 {! inst9|81~combout $end
$var wire 1 |! inst9|82~0_combout $end
$var wire 1 }! inst9|5~0_combout $end
$var wire 1 ~! inst9|84~0_combout $end
$var wire 1 !" inst9|85~combout $end
$var wire 1 "" inst9|86~0_combout $end
$var wire 1 #" inst9|87~combout $end
$var wire 1 $" inst|counter [27] $end
$var wire 1 %" inst|counter [26] $end
$var wire 1 &" inst|counter [25] $end
$var wire 1 '" inst|counter [24] $end
$var wire 1 (" inst|counter [23] $end
$var wire 1 )" inst|counter [22] $end
$var wire 1 *" inst|counter [21] $end
$var wire 1 +" inst|counter [20] $end
$var wire 1 ," inst|counter [19] $end
$var wire 1 -" inst|counter [18] $end
$var wire 1 ." inst|counter [17] $end
$var wire 1 /" inst|counter [16] $end
$var wire 1 0" inst|counter [15] $end
$var wire 1 1" inst|counter [14] $end
$var wire 1 2" inst|counter [13] $end
$var wire 1 3" inst|counter [12] $end
$var wire 1 4" inst|counter [11] $end
$var wire 1 5" inst|counter [10] $end
$var wire 1 6" inst|counter [9] $end
$var wire 1 7" inst|counter [8] $end
$var wire 1 8" inst|counter [7] $end
$var wire 1 9" inst|counter [6] $end
$var wire 1 :" inst|counter [5] $end
$var wire 1 ;" inst|counter [4] $end
$var wire 1 <" inst|counter [3] $end
$var wire 1 =" inst|counter [2] $end
$var wire 1 >" inst|counter [1] $end
$var wire 1 ?" inst|counter [0] $end
$upscope $end
$upscope $end
$enddefinitions $end
#0
$dumpvars
0!
0"
0#
0$
0%
0&
0'
0(
1)
0*
0+
0,
0-
0.
0/
10
01
02
03
04
05
06
17
08
09
0:
0;
0<
0=
1>
0?
1@
xA
1B
1C
1D
0E
0F
0G
1H
0I
0J
0K
0L
0M
0N
0O
0P
0Q
0R
0S
0T
0U
0V
0W
0X
0Y
0Z
0[
0\
0]
0^
0_
0`
0a
0b
0c
0d
1e
1f
0g
0h
0i
0j
0k
0l
0m
0n
0o
0p
0q
0r
0s
0t
0u
0v
0w
0x
0y
0z
0{
0|
0}
0~
0!!
0"!
0#!
0$!
0%!
0&!
0'!
1(!
1)!
0*!
1+!
0,!
1-!
0.!
0/!
00!
01!
02!
03!
04!
05!
06!
07!
08!
09!
0:!
0;!
0<!
0=!
0>!
0?!
0@!
0A!
0B!
0C!
1D!
0E!
0F!
0G!
0H!
0I!
0J!
0K!
0L!
0M!
0N!
0O!
0P!
0Q!
0R!
0S!
1T!
1U!
0V!
0W!
0X!
0Y!
0Z!
0[!
0\!
0]!
0^!
0_!
0`!
0a!
1b!
1c!
0d!
0e!
0f!
0g!
0h!
0i!
0j!
0k!
0l!
0m!
0n!
0o!
0p!
0q!
1r!
1s!
0t!
0u!
0v!
0w!
0x!
0y!
0z!
0{!
0|!
0}!
0~!
0!"
0""
1#"
0?"
0>"
0="
0<"
0;"
0:"
09"
08"
07"
06"
05"
04"
03"
02"
01"
00"
0/"
0."
0-"
0,"
0+"
0*"
0)"
0("
0'"
0&"
0%"
0$"
$end
#10000
1!
1F
1G
1?"
1,!
1h
0H
1i
1.!
1/!
0-!
#20000
0!
0F
0G
#30000
1!
1F
1G
1>"
0?"
0h
1j
1H
0i
0j
1k
1i
0k
#40000
0!
0F
0G
#50000
1!
1F
1G
1?"
1h
0H
1j
0i
1k
#60000
0!
0F
0G
#70000
1!
1F
1G
1="
0>"
0?"
0h
0j
1l
0k
1H
1i
0l
1k
0i
1m
0m
#80000
0!
0F
0G
#90000
1!
1F
1G
1?"
1h
0H
1i
#100000
0!
0F
0G
#110000
1!
1F
1G
1>"
0?"
0h
1j
1H
0i
0j
1l
0k
1i
0l
1k
1m
0m
#120000
0!
0F
0G
#130000
1!
1F
1G
1?"
1h
0H
1j
0i
1l
0k
1m
#140000
0!
0F
0G
#150000
1!
1F
1G
1<"
0="
0>"
0?"
0h
0j
0l
1k
1n
1H
1i
0m
0k
0n
0i
1m
1o
0o
#160000
0!
0F
0G
#170000
1!
1F
1G
1?"
1h
0H
1i
#180000
0!
0F
0G
#190000
1!
1F
1G
1>"
0?"
0h
1j
1H
0i
0j
1k
1i
0k
#200000
0!
0F
0G
#210000
1!
1F
1G
1?"
1h
0H
1j
0i
1k
#220000
0!
0F
0G
#230000
1!
1F
1G
1="
0>"
0?"
0h
0j
1l
0k
1H
1i
0l
1k
1n
0i
0m
0n
1m
1o
0o
#240000
0!
0F
0G
#250000
1!
1F
1G
1?"
1h
0H
1i
#260000
0!
0F
0G
#270000
1!
1F
1G
1>"
0?"
0h
1j
1H
0i
0j
1l
0k
1i
0l
1k
1n
0m
0n
1m
1o
0o
#280000
0!
0F
0G
#290000
1!
1F
1G
1?"
1L
1h
0H
1j
0i
1l
0k
1n
0m
1o
#300000
0!
0F
0G
#310000
1!
1F
1G
1;"
0<"
0="
0>"
0?"
0L
0h
0j
0l
1k
0n
1p
1H
1i
1m
0o
0k
0p
0i
0m
1o
1q
0q
#320000
0!
0F
0G
#330000
1!
1F
1G
1?"
1h
0H
1i
#340000
0!
0F
0G
#350000
1!
1F
1G
1>"
0?"
0h
1j
1H
0i
0j
1k
1i
0k
#360000
0!
0F
0G
#370000
1!
1F
1G
1?"
1h
0H
1j
0i
1k
#380000
0!
0F
0G
#390000
1!
1F
1G
1="
0>"
0?"
0h
0j
1l
0k
1H
1i
0l
1k
0i
1m
0m
#400000
0!
0F
0G
#410000
1!
1F
1G
1?"
1h
0H
1i
#420000
0!
0F
0G
#430000
1!
1F
1G
1>"
0?"
0h
1j
1H
0i
0j
1l
0k
1i
0l
1k
1m
0m
#440000
0!
0F
0G
#450000
1!
1F
1G
1?"
1h
0H
1j
0i
1l
0k
1m
#460000
0!
0F
0G
#470000
1!
1F
1G
1<"
0="
0>"
0?"
0h
0j
0l
1k
1n
1H
1i
0m
0k
0n
1p
0i
1m
0o
0p
1o
1q
0q
#480000
0!
0F
0G
#490000
1!
1F
1G
1?"
1h
0H
1i
#500000
0!
0F
0G
#510000
1!
1F
1G
1>"
0?"
0h
1j
1H
0i
0j
1k
1i
0k
#520000
0!
0F
0G
#530000
1!
1F
1G
1?"
1h
0H
1j
0i
1k
#540000
0!
0F
0G
#550000
1!
1F
1G
1="
0>"
0?"
0h
0j
1l
0k
1H
1i
0l
1k
1n
0i
0m
0n
1p
1m
0o
0p
1o
1q
0q
#560000
0!
0F
0G
#570000
1!
1F
1G
1?"
1h
0H
1i
#580000
0!
0F
0G
#590000
1!
1F
1G
1>"
0?"
0h
1j
1H
0i
0j
1l
0k
1i
0l
1k
1n
0m
0n
1p
1m
0o
0p
1o
1q
0q
#600000
0!
0F
0G
#610000
1!
1F
1G
1?"
1h
0H
1j
0i
1l
0k
1n
0m
1p
0o
1q
#620000
0!
0F
0G
#630000
1!
1F
1G
1:"
0;"
0<"
0="
0>"
0?"
0h
0j
0l
1k
0n
0p
1r
1H
1i
1m
1o
0q
0k
0r
0i
0m
0o
1q
1s
0s
#640000
0!
0F
0G
#650000
1!
1F
1G
1?"
1h
0H
1i
#660000
0!
0F
0G
#670000
1!
1F
1G
1>"
0?"
0h
1j
1H
0i
0j
1k
1i
0k
#680000
0!
0F
0G
#690000
1!
1F
1G
1?"
1h
0H
1j
0i
1k
#700000
0!
0F
0G
#710000
1!
1F
1G
1="
0>"
0?"
0h
0j
1l
0k
1H
1i
0l
1k
0i
1m
0m
#720000
0!
0F
0G
#730000
1!
1F
1G
1?"
1h
0H
1i
#740000
0!
0F
0G
#750000
1!
1F
1G
1>"
0?"
0h
1j
1H
0i
0j
1l
0k
1i
0l
1k
1m
0m
#760000
0!
0F
0G
#770000
1!
1F
1G
1?"
1h
0H
1j
0i
1l
0k
1m
#780000
0!
0F
0G
#790000
1!
1F
1G
1<"
0="
0>"
0?"
0h
0j
0l
1k
0(!
1n
1H
1i
0m
0k
0n
0i
1m
1o
0o
#800000
0!
0F
0G
#810000
1!
1F
1G
1?"
1h
0H
1i
#820000
0!
0F
0G
#830000
1!
1F
1G
1>"
0?"
0h
1j
1H
0i
0j
1k
1i
0k
#840000
0!
0F
0G
#850000
1!
1F
1G
1?"
1h
0H
1j
0i
1k
#860000
0!
0F
0G
#870000
1!
1F
1G
1="
0>"
0?"
0h
0j
1l
0k
1H
1i
0l
1k
1n
0i
0m
0n
1m
1o
0o
#880000
0!
0F
0G
#890000
1!
1F
1G
1?"
1h
0H
1i
#900000
0!
0F
0G
#910000
1!
1F
1G
1>"
0?"
0h
1j
1H
0i
0j
1l
0k
1i
0l
1k
1n
0m
0n
1m
1o
0o
#920000
0!
0F
0G
#930000
1!
1F
1G
1?"
1h
0H
1j
0i
1l
0k
1n
0m
1o
#940000
0!
0F
0G
#950000
1!
1F
1G
1;"
0<"
0="
0>"
0?"
0h
0j
0l
1k
0n
1p
1H
1i
1m
0o
0k
0p
1r
0i
0m
1o
0q
0r
1q
1s
0s
#960000
0!
0F
0G
#970000
1!
1F
1G
1?"
1h
0H
1i
#980000
0!
0F
0G
#990000
1!
1F
1G
1>"
0?"
0h
1j
1H
0i
0j
1k
1i
0k
