B0729047 lab05/wave/simulation/qsim/wave.msim.vcd
$comment
	File created using the following command:
		vcd file wave.msim.vcd -direction
$end
$date
	Fri Nov 08 16:13:53 2019
$end
$version
	ModelSim Version 10.5b
$end
$timescale
	1ps
$end

$scope module wave_vlg_vec_tst $end
$var reg 1 ! clk $end
$var wire 1 " QA0 $end
$var wire 1 # QA1 $end
$var wire 1 $ QA2 $end
$var wire 1 % QA3 $end
$var wire 1 & QA4 $end
$var wire 1 ' QA5 $end
$var wire 1 ( QA6 $end
$var wire 1 ) QB0 $end
$var wire 1 * QB1 $end
$var wire 1 + QB2 $end
$var wire 1 , QB3 $end
$var wire 1 - QB4 $end
$var wire 1 . QB5 $end
$var wire 1 / QB6 $end
$var wire 1 0 QC0 $end
$var wire 1 1 QC1 $end
$var wire 1 2 QC2 $end
$var wire 1 3 QC3 $end
$var wire 1 4 QC4 $end
$var wire 1 5 QC5 $end
$var wire 1 6 QC6 $end
$var wire 1 7 QD0 $end
$var wire 1 8 QD1 $end
$var wire 1 9 QD2 $end
$var wire 1 : QD3 $end
$var wire 1 ; QD4 $end
$var wire 1 < QD5 $end
$var wire 1 = QD6 $end

$scope module i1 $end
$var wire 1 > gnd $end
$var wire 1 ? vcc $end
$var wire 1 @ unknown $end
$var tri1 1 A devclrn $end
$var tri1 1 B devpor $end
$var tri1 1 C devoe $end
$var wire 1 D ~QUARTUS_CREATED_GND~I_combout $end
$var wire 1 E clk~input_o $end
$var wire 1 F clk~inputCLKENA0_outclk $end
$var wire 1 G inst4|A0~0_combout $end
$var wire 1 H inst4|A2~0_combout $end
$var wire 1 I inst4|A2~q $end
$var wire 1 J inst4|A3~0_combout $end
$var wire 1 K inst4|A3~q $end
$var wire 1 L inst4|inst10~combout $end
$var wire 1 M inst4|A0~q $end
$var wire 1 N inst6|84~1_combout $end
$var wire 1 O inst4|A1~q $end
$var wire 1 P inst6|81~combout $end
$var wire 1 Q inst6|82~0_combout $end
$var wire 1 R inst6|83~combout $end
$var wire 1 S inst6|84~0_combout $end
$var wire 1 T inst6|85~combout $end
$var wire 1 U inst6|86~combout $end
$var wire 1 V inst6|87~combout $end
$var wire 1 W inst2|A0~0_combout $end
$var wire 1 X inst2|A2~0_combout $end
$var wire 1 Y inst2|A2~q $end
$var wire 1 Z inst2|inst8~combout $end
$var wire 1 [ inst2|A0~q $end
$var wire 1 \ inst7|82~1_combout $end
$var wire 1 ] inst2|A1~q $end
$var wire 1 ^ inst7|81~combout $end
$var wire 1 _ inst7|82~0_combout $end
$var wire 1 ` inst7|5~0_combout $end
$var wire 1 a inst7|84~0_combout $end
$var wire 1 b inst7|85~combout $end
$var wire 1 c inst7|86~0_combout $end
$var wire 1 d inst7|87~combout $end
$var wire 1 e inst5|A0~0_combout $end
$var wire 1 f inst5|A2~0_combout $end
$var wire 1 g inst5|A2~q $end
$var wire 1 h inst5|A3~0_combout $end
$var wire 1 i inst5|A3~q $end
$var wire 1 j inst5|inst10~combout $end
$var wire 1 k inst5|A0~q $end
$var wire 1 l inst8|84~1_combout $end
$var wire 1 m inst5|A1~q $end
$var wire 1 n inst8|81~combout $end
$var wire 1 o inst8|82~0_combout $end
$var wire 1 p inst8|83~combout $end
$var wire 1 q inst8|84~0_combout $end
$var wire 1 r inst8|85~combout $end
$var wire 1 s inst8|86~combout $end
$var wire 1 t inst8|87~combout $end
$var wire 1 u inst3|A0~0_combout $end
$var wire 1 v inst3|A2~0_combout $end
$var wire 1 w inst3|A2~q $end
$var wire 1 x inst9|5~1_combout $end
$var wire 1 y inst3|A0~q $end
$var wire 1 z inst9|82~1_combout $end
$var wire 1 { inst3|A1~q $end
$var wire 1 | inst9|81~combout $end
$var wire 1 } inst9|82~0_combout $end
$var wire 1 ~ inst9|5~0_combout $end
$var wire 1 !! inst9|84~0_combout $end
$var wire 1 "! inst9|85~combout $end
$var wire 1 #! inst9|86~0_combout $end
$var wire 1 $! inst9|87~combout $end
$upscope $end
$upscope $end
$enddefinitions $end
#0
$dumpvars
0!
0"
0#
0$
0%
0&
0'
1(
0)
0*
0+
0,
0-
0.
1/
00
01
02
03
04
05
16
07
08
09
0:
0;
0<
1=
0>
1?
x@
1A
1B
1C
0D
0E
0F
1G
0H
0I
0J
0K
0L
0M
0N
0O
0P
0Q
0R
0S
0T
0U
1V
1W
0X
0Y
0Z
0[
0\
0]
0^
0_
0`
0a
0b
0c
1d
1e
0f
0g
0h
0i
0j
0k
0l
0m
0n
0o
0p
0q
0r
0s
1t
1u
0v
0w
0x
0y
0z
0{
0|
0}
0~
0!!
0"!
0#!
1$!
$end
#10000
1!
1E
1F
1M
0G
1U
1T
1S
1P
1N
1"
1%
1&
1'
#20000
0!
0E
0F
#30000
1!
1E
1F
1O
0M
1G
0V
0T
0S
1R
0P
0"
1$
0%
0&
0(
#40000
0!
0E
0F
#50000
1!
1E
1F
1M
0G
1T
0R
0N
1H
0$
1&
#60000
0!
0E
0F
#70000
1!
1E
1F
0O
0M
1I
1G
0U
1S
1P
1"
1%
0'
#80000
0!
0E
0F
#90000
1!
1E
1F
1M
0G
0S
1Q
0P
1N
0"
1#
0%
#100000
0!
0E
0F
#110000
1!
1E
1F
1O
0M
1G
0T
1P
1"
0&
#120000
0!
0E
0F
#130000
1!
1E
1F
1M
0G
1V
1U
1T
1S
0Q
0P
0N
1J
0H
0"
0#
1%
1&
1'
1(
#140000
0!
0E
0F
#150000
1!
1E
1F
0O
0M
1K
0I
1G
0V
0U
0T
0S
0%
0&
0'
0(
#160000
0!
0E
0F
#170000
1!
1E
1F
1M
0G
1T
1S
1N
1%
1&
#180000
0!
0E
0F
#190000
1!
1E
1F
1O
0M
1G
1U
0T
0S
1R
1Q
1P
1L
1"
1#
1$
0%
0&
1'
1[
0K
0O
1\
0W
1V
0U
0R
0Q
0P
0N
0L
0J
1c
1b
1a
1^
1)
1,
1-
1.
0"
0#
0$
0'
1(
#200000
0!
0E
0F
#210000
1!
1E
1F
1M
0G
1U
1T
1S
1P
1N
1"
1%
1&
1'
#220000
0!
0E
0F
#230000
1!
1E
1F
1O
0M
1G
0V
0T
0S
1R
0P
0"
1$
0%
0&
0(
#240000
0!
0E
0F
#250000
1!
1E
1F
1M
0G
1T
0R
0N
1H
0$
1&
#260000
0!
0E
0F
#270000
1!
1E
1F
0O
0M
1I
1G
0U
1S
1P
1"
1%
0'
#280000
0!
0E
0F
#290000
1!
1E
1F
1M
0G
0S
1Q
0P
1N
0"
1#
0%
#300000
0!
0E
0F
#310000
1!
1E
1F
1O
0M
1G
0T
1P
1"
0&
#320000
0!
0E
0F
#330000
1!
1E
1F
1M
0G
1V
1U
1T
1S
0Q
0P
0N
1J
0H
0"
0#
1%
1&
1'
1(
#340000
0!
0E
0F
#350000
1!
1E
1F
0O
0M
1K
0I
1G
0V
0U
0T
0S
0%
0&
0'
0(
#360000
0!
0E
0F
#370000
1!
1E
1F
1M
0G
1T
1S
1N
1%
1&
#380000
0!
0E
0F
#390000
1!
1E
1F
1O
0M
1G
1U
0T
0S
1R
1Q
1P
1L
1"
1#
1$
0%
0&
1'
1]
0[
0K
0O
1W
1V
0U
0R
0Q
0P
0N
0L
0J
0d
0b
0a
1`
0^
0)
1+
0,
0-
0/
0"
0#
0$
0'
1(
#400000
0!
0E
0F
#410000
1!
1E
1F
1M
0G
1U
1T
1S
1P
1N
1"
1%
1&
1'
#420000
0!
0E
0F
#430000
1!
1E
1F
1O
0M
1G
0V
0T
0S
1R
0P
0"
1$
0%
0&
0(
#440000
0!
0E
0F
#450000
1!
1E
1F
1M
0G
1T
0R
0N
1H
0$
1&
#460000
0!
0E
0F
#470000
1!
1E
1F
0O
0M
1I
1G
0U
1S
1P
1"
1%
0'
#480000
0!
0E
0F
#490000
1!
1E
1F
1M
0G
0S
1Q
0P
1N
0"
1#
0%
#500000
0!
0E
0F
#510000
1!
1E
1F
1O
0M
1G
0T
1P
1"
0&
#520000
0!
0E
0F
#530000
1!
1E
1F
1M
0G
1V
1U
1T
1S
0Q
0P
0N
1J
0H
0"
0#
1%
1&
1'
1(
#540000
0!
0E
0F
#550000
1!
1E
1F
0O
0M
1K
0I
1G
0V
0U
0T
0S
0%
0&
0'
0(
#560000
0!
0E
0F
#570000
1!
1E
1F
1M
0G
1T
1S
1N
1%
1&
#580000
0!
0E
0F
#590000
1!
1E
1F
1O
0M
1G
1U
0T
0S
1R
1Q
1P
1L
1"
1#
1$
0%
0&
1'
1[
0K
0O
0\
1X
0W
1V
0U
0R
0Q
0P
0N
0L
0J
1b
0`
0+
1-
0"
0#
0$
0'
1(
#600000
0!
0E
0F
#610000
1!
1E
1F
1M
0G
1U
1T
1S
1P
1N
1"
1%
1&
1'
#620000
0!
0E
0F
#630000
1!
1E
1F
1O
0M
1G
0V
0T
0S
1R
0P
0"
1$
0%
0&
0(
#640000
0!
0E
0F
#650000
1!
1E
1F
1M
0G
1T
0R
0N
1H
0$
1&
#660000
0!
0E
0F
#670000
1!
1E
1F
0O
0M
1I
1G
0U
1S
1P
1"
1%
0'
#680000
0!
0E
0F
#690000
1!
1E
1F
1M
0G
0S
1Q
0P
1N
0"
1#
0%
#700000
0!
0E
0F
#710000
1!
1E
1F
1O
0M
1G
0T
1P
1"
0&
#720000
0!
0E
0F
#730000
1!
1E
1F
1M
0G
1V
1U
1T
1S
0Q
0P
0N
1J
0H
0"
0#
1%
1&
1'
1(
#740000
0!
0E
0F
#750000
1!
1E
1F
0O
0M
1K
0I
1G
0V
0U
0T
0S
0%
0&
0'
0(
#760000
0!
0E
0F
#770000
1!
1E
1F
1M
0G
1T
1S
1N
1%
1&
#780000
0!
0E
0F
#790000
1!
1E
1F
1O
0M
1G
1U
0T
0S
1R
1Q
1P
1L
1"
1#
1$
0%
0&
1'
0]
0[
1Y
0K
0O
1W
1V
0U
0R
0Q
0P
0N
0L
0J
0c
1a
1^
1)
1,
0.
0"
0#
0$
0'
1(
#800000
0!
0E
0F
#810000
1!
1E
1F
1M
0G
1U
1T
1S
1P
1N
1"
1%
1&
1'
#820000
0!
0E
0F
#830000
1!
1E
1F
1O
0M
1G
0V
0T
0S
1R
0P
0"
1$
0%
0&
0(
#840000
0!
0E
0F
#850000
1!
1E
1F
1M
0G
1T
0R
0N
1H
0$
1&
#860000
0!
0E
0F
#870000
1!
1E
1F
0O
0M
1I
1G
0U
1S
1P
1"
1%
0'
#880000
0!
0E
0F
#890000
1!
1E
1F
1M
0G
0S
1Q
0P
1N
0"
1#
0%
#900000
0!
0E
0F
#910000
1!
1E
1F
1O
0M
1G
0T
1P
1"
0&
#920000
0!
0E
0F
#930000
1!
1E
1F
1M
0G
1V
1U
1T
1S
0Q
0P
0N
1J
0H
0"
0#
1%
1&
1'
1(
#940000
0!
0E
0F
#950000
1!
1E
1F
0O
0M
1K
0I
1G
0V
0U
0T
0S
0%
0&
0'
0(
#960000
0!
0E
0F
#970000
1!
1E
1F
1M
0G
1T
1S
1N
1%
1&
#980000
0!
0E
0F
#990000
1!
1E
1F
1O
0M
1G
1U
0T
0S
1R
1Q
1P
1L
1"
1#
1$
0%
0&
1'
1[
0K
0O
1\
0W
1V
0U
0R
0Q
0P
0N
0L
0J
0a
1_
0^
0)
1*
0,
0"
0#
0$
0'
1(
